<svg width="19" height="37" viewBox="0 0 19 37" fill="none" xmlns="http://www.w3.org/2000/svg">
<path d="M18.1466 0.802575L12.9858 0.694336C10.943 0.694336 9.0077 1.45201 7.50246 2.85912C5.99723 4.26623 5.24461 6.21453 5.24461 8.27107V13.2501H0.406353C0.191319 13.2501 0.0838013 13.3583 0.0838013 13.5748V19.7444C0.0838013 19.9609 0.191319 20.0691 0.406353 20.0691H5.24461V35.7638C5.24461 35.9803 5.35213 36.0885 5.56716 36.0885H11.9107C12.1257 36.0885 12.2332 35.9803 12.2332 35.7638V20.1774H17.0715C17.2865 20.1774 17.394 20.0691 17.394 19.8527L18.1466 13.683C18.1466 13.5748 18.1466 13.4665 18.0391 13.3583C17.9316 13.2501 17.8241 13.2501 17.7166 13.2501H12.0182V10.1111C12.0182 10.1111 11.9106 8.59579 12.6633 7.72988C12.9858 7.29692 13.5234 7.08044 14.1685 7.08044H17.8241C18.0391 7.08044 18.1466 6.9722 18.1466 6.75572V1.12729C18.4692 1.01905 18.3617 0.802575 18.1466 0.802575Z" fill="#4C6CAD"/>
</svg>
